Assignment 3
…
data("stop_words")
tidy_page <- tokenized_tibble %>%
  anti_join(stop_words)

Joining with `by = join_by(word)`

cat("The number of words reduced: ", 
    nrow(tokenized_tibble)-nrow(tidy_page))

The number of words reduced:  2059

tidy_page %>%
  count(word, sort = TRUE)

# A tibble: 1,141 × 2
   word             n
   <chr>        <int>
 1 park            85
 2 hyde            75
 3 chicago         57
 4 kenwood         40
 5 street          38
 6 south           29
 7 community       28
 8 neighborhood    26
 9 oakland         25
10 lake            23
# ℹ 1,131 more rows
…
